<?xml version="1.0" encoding="UTF-8"?>
<CustomTab xmlns="http://soap.sforce.com/2006/04/metadata">
    <customObject>true</customObject>
    <mobileReady>false</mobileReady>
    <motif>Custom9: 稲妻</motif>
</CustomTab>
