<?xml version="1.0" encoding="UTF-8"?>
<CustomTab xmlns="http://soap.sforce.com/2006/04/metadata">
    <description>Created by Lightning App Builder</description>
    <flexiPage>DPA_Recruit_AH_AppPage</flexiPage>
    <label>リクルート代理店</label>
    <mobileReady>true</mobileReady>
    <motif>Custom93: ショッピングカート</motif>
</CustomTab>
