<?xml version="1.0" encoding="UTF-8"?>
<CustomTab xmlns="http://soap.sforce.com/2006/04/metadata">
    <label>IRIS</label>
    <mobileReady>false</mobileReady>
    <motif>Custom21: コンピュータ</motif>
    <page>IRIS_Top</page>
</CustomTab>
