<?xml version="1.0" encoding="UTF-8"?>
<CustomTab xmlns="http://soap.sforce.com/2006/04/metadata">
    <description>RedCritter Rewards Store</description>
    <label>Rewards</label>
    <mobileReady>false</mobileReady>
    <motif>Custom93: ショッピングカート</motif>
    <page>RedCritterRewards</page>
</CustomTab>
